\relax 
\providecommand\hyper@newdestlabel[2]{}
\providecommand*\new@tpo@label[2]{}
\catcode `"\active 
\providecommand\HyperFirstAtBeginDocument{\AtBeginDocument}
\HyperFirstAtBeginDocument{\ifx\hyper@anchor\@undefined
\global\let\oldcontentsline\contentsline
\gdef\contentsline#1#2#3#4{\oldcontentsline{#1}{#2}{#3}}
\global\let\oldnewlabel\newlabel
\gdef\newlabel#1#2{\newlabelxx{#1}#2}
\gdef\newlabelxx#1#2#3#4#5#6{\oldnewlabel{#1}{{#2}{#3}}}
\AtEndDocument{\ifx\hyper@anchor\@undefined
\let\contentsline\oldcontentsline
\let\newlabel\oldnewlabel
\fi}
\fi}
\global\let\hyper@last\relax 
\gdef\HyperFirstAtBeginDocument#1{#1}
\providecommand\HyField@AuxAddToFields[1]{}
\providecommand\HyField@AuxAddToCoFields[2]{}
\abx@aux@refcontext{nty/global//global/global}
\@input{titlepage.aux}
\providecommand \oddpage@label [2]{}
\@writefile{toc}{\boolfalse {citerequest}\boolfalse {citetracker}\boolfalse {pagetracker}\boolfalse {backtracker}\relax }
\@writefile{lof}{\boolfalse {citerequest}\boolfalse {citetracker}\boolfalse {pagetracker}\boolfalse {backtracker}\relax }
\@writefile{lot}{\boolfalse {citerequest}\boolfalse {citetracker}\boolfalse {pagetracker}\boolfalse {backtracker}\relax }
\babel@aux{ngerman}{}
\babel@aux{english}{}
\@input{chapter/motivation.aux}
\abx@aux@cite{Raul2018}
\abx@aux@segm{0}{0}{Raul2018}
\abx@aux@cite{Wang2017}
\abx@aux@segm{0}{0}{Wang2017}
\@input{chapter/problem.aux}
\abx@aux@cite{LeCun1998}
\abx@aux@segm{0}{0}{LeCun1998}
\abx@aux@segm{0}{0}{Wang2017}
\abx@aux@cite{Maturana}
\abx@aux@segm{0}{0}{Maturana}
\abx@aux@cite{Springenberg2014}
\abx@aux@segm{0}{0}{Springenberg2014}
\abx@aux@cite{Krizhevsky2012a}
\abx@aux@segm{0}{0}{Krizhevsky2012a}
\abx@aux@segm{0}{0}{Krizhevsky2012a}
\abx@aux@cite{Su2015}
\abx@aux@segm{0}{0}{Su2015}
\abx@aux@segm{0}{0}{Su2015}
\abx@aux@segm{0}{0}{Su2015}
\abx@aux@cite{Qi2016a}
\abx@aux@segm{0}{0}{Qi2016a}
\abx@aux@segm{0}{0}{Su2015}
\abx@aux@cite{Kanezaki2016}
\abx@aux@segm{0}{0}{Kanezaki2016}
\abx@aux@cite{Masci2015a}
\abx@aux@segm{0}{0}{Masci2015a}
\abx@aux@cite{Sinhab}
\abx@aux@segm{0}{0}{Sinhab}
\abx@aux@segm{0}{0}{Sinhab}
\abx@aux@segm{0}{0}{Sinhab}
\abx@aux@cite{Maron2017}
\abx@aux@segm{0}{0}{Maron2017}
\abx@aux@segm{0}{0}{Maron2017}
\abx@aux@segm{0}{0}{Maron2017}
\abx@aux@segm{0}{0}{Maturana}
\abx@aux@cite{Maturana2015}
\abx@aux@segm{0}{0}{Maturana2015}
\abx@aux@segm{0}{0}{Maturana2015}
\abx@aux@segm{0}{0}{Maturana2015}
\abx@aux@segm{0}{0}{Maturana2015}
\@input{chapter/octree-based.aux}
\abx@aux@segm{0}{0}{Wang2017}
\abx@aux@cite{Wilhelms1990}
\abx@aux@segm{0}{0}{Wilhelms1990}
\abx@aux@segm{0}{0}{Wang2017}
\abx@aux@segm{0}{0}{Wang2017}
\abx@aux@cite{Wilhelms1990a}
\abx@aux@segm{0}{0}{Wilhelms1990a}
\abx@aux@cite{Riegler2016a}
\abx@aux@segm{0}{0}{Riegler2016a}
\abx@aux@segm{0}{0}{Wang2017}
\@input{chapter/tensorflow-ocnn.aux}
\abx@aux@segm{0}{0}{Wang2017}
\abx@aux@cite{Clemens}
\abx@aux@segm{0}{0}{Clemens}
\abx@aux@segm{0}{0}{Raul2018}
\abx@aux@segm{0}{0}{Wang2017}
\abx@aux@cite{Dauphin2015a}
\abx@aux@segm{0}{0}{Dauphin2015a}
\abx@aux@segm{0}{0}{LeCun1998}
\@input{chapter/experiments.aux}
\abx@aux@segm{0}{0}{LeCun1998}
\abx@aux@segm{0}{0}{Wang2017}
\abx@aux@segm{0}{0}{Raul2018}
\@input{chapter/conclusion.aux}
\abx@aux@cite{Graham2015}
\abx@aux@segm{0}{0}{Graham2015}
\abx@aux@cite{Debrunner1990a}
\abx@aux@segm{0}{0}{Debrunner1990a}
\abx@aux@cite{Adams1981}
\abx@aux@segm{0}{0}{Adams1981}
\@writefile{toc}{\defcounter {refsection}{0}\relax }\@writefile{toc}{\contentsline {chapter}{Figures}{38}{chapter*.24}}
\abx@aux@refcontextdefaultsdone
\abx@aux@defaultrefcontext{0}{Adams1981}{nty/global//global/global}
\abx@aux@defaultrefcontext{0}{Dauphin2015a}{nty/global//global/global}
\abx@aux@defaultrefcontext{0}{Debrunner1990a}{nty/global//global/global}
\abx@aux@defaultrefcontext{0}{Raul2018}{nty/global//global/global}
\abx@aux@defaultrefcontext{0}{Graham2015}{nty/global//global/global}
\abx@aux@defaultrefcontext{0}{Kanezaki2016}{nty/global//global/global}
\abx@aux@defaultrefcontext{0}{Krizhevsky2012a}{nty/global//global/global}
\abx@aux@defaultrefcontext{0}{LeCun1998}{nty/global//global/global}
\abx@aux@defaultrefcontext{0}{Maron2017}{nty/global//global/global}
\abx@aux@defaultrefcontext{0}{Masci2015a}{nty/global//global/global}
\abx@aux@defaultrefcontext{0}{Maturana}{nty/global//global/global}
\abx@aux@defaultrefcontext{0}{Maturana2015}{nty/global//global/global}
\abx@aux@defaultrefcontext{0}{Qi2016a}{nty/global//global/global}
\abx@aux@defaultrefcontext{0}{Riegler2016a}{nty/global//global/global}
\abx@aux@defaultrefcontext{0}{Sinhab}{nty/global//global/global}
\abx@aux@defaultrefcontext{0}{Springenberg2014}{nty/global//global/global}
\abx@aux@defaultrefcontext{0}{Su2015}{nty/global//global/global}
\abx@aux@defaultrefcontext{0}{Clemens}{nty/global//global/global}
\abx@aux@defaultrefcontext{0}{Wang2017}{nty/global//global/global}
\abx@aux@defaultrefcontext{0}{Wilhelms1990}{nty/global//global/global}
\abx@aux@defaultrefcontext{0}{Wilhelms1990a}{nty/global//global/global}
\global\@namedef{scr@dte@chapter@lastmaxnumwidth}{10.84041pt}
\global\@namedef{scr@dte@section@lastmaxnumwidth}{18.36295pt}
\global\@namedef{scr@dte@subsection@lastmaxnumwidth}{26.87097pt}
